module bitbucket.org/rom-bar/gundam

go 1.13

require (
	github.com/casbin/casbin/v2 v2.0.0
	github.com/davecgh/go-spew v1.1.1 // indirect
	github.com/dgrijalva/jwt-go v3.2.0+incompatible
	github.com/jinzhu/gorm v1.9.12
	github.com/joho/godotenv v1.3.0
	github.com/labstack/echo/v4 v4.1.14
	golang.org/x/crypto v0.0.0-20191227163750-53104e6ec876
	gopkg.in/yaml.v2 v2.2.7 // indirect
)
